{
	"Version": "2.0",
	"Content_name": "TechnicolorMuseum",
	"BoundingBox_center": [0, 0, 1.65],
	"Fps": 30,
	"Frames_number": 300,
	"Informative": {
		"Cameras_number": 24,
		"RigRadius": 0.3
	},
	"cameras": [{
			"Name": "viewport",
			"Position": [0, 0, 1.65],
			"Rotation": [0, 0, 0],
			"Depthmap": 1,
			"Background": 1,
			"Resolution": [2048, 2048],
			"Projection": "Perspective",
			"Focal": [1024, 1024],
			"Principle_point": [1024, 1024],
			"Depth_range": [0.5, 25],
			"BitDepthColor": 10,
			"BitDepthDepth": 10,
			"ColorSpace": "YUV420",
			"DepthColorSpace": "YUV420"
		}, {
			"Name": "center",
			"Position": [0, 0, 1.65],
			"Rotation": [0, 0, 0],
			"Depthmap": 1,
			"Background": 1,
			"Resolution": [4096, 2048],
			"Projection": "Equirectangular",
			"Hor_range": [-180, 180],
			"Ver_range": [-90, 90],
			"Depth_range": [0.5, 25],
			"BitDepthColor": 10,
			"BitDepthDepth": 16,
			"ColorSpace": "YUV420",
			"DepthColorSpace": "YUV420"
		}, {
			"Name": "v0",
			"Position": [0.0777, -0.1429, 1.3872],
			"Rotation": [-61.4676, 40.3759, 0],
			"Depthmap": 1,
			"Background": 1,
			"Resolution": [2048, 2048],
			"Hor_range": [-90, 90],
			"Ver_range": [-90, 90],
			"Projection": "Equirectangular",
			"Depth_range": [0.5, 25],
			"BitDepthColor": 10,
			"BitDepthDepth": 16,
			"ColorSpace": "YUV420",
			"DepthColorSpace": "YUV420"
		}, {
			"Name": "v1",
			"Position": [0.1429, 0.2628, 1.7277],
			"Rotation": [61.4676, -14.1095, 0],
			"Depthmap": 1,
			"Background": 1,
			"Resolution": [2048, 2048],
			"Hor_range": [-90, 90],
			"Ver_range": [-90, 90],
			"Projection": "Equirectangular",
			"Depth_range": [0.5, 25],
			"BitDepthColor": 10,
			"BitDepthDepth": 16,
			"ColorSpace": "YUV420",
			"DepthColorSpace": "YUV420"
		}, {
			"Name": "v2",
			"Position": [0.2628, 0.0777, 1.7929],
			"Rotation": [16.4676, -24.8121, 0],
			"Depthmap": 1,
			"Background": 1,
			"Resolution": [2048, 2048],
			"Hor_range": [-90, 90],
			"Ver_range": [-90, 90],
			"Projection": "Equirectangular",
			"Depth_range": [0.5, 25],
			"BitDepthColor": 10,
			"BitDepthDepth": 16,
			"ColorSpace": "YUV420",
			"DepthColorSpace": "YUV420"
		}, {
			"Name": "v3",
			"Position": [0.1429, -0.2628, 1.5723],
			"Rotation": [-61.4676, 14.1095, 0],
			"Depthmap": 1,
			"Background": 1,
			"Resolution": [2048, 2048],
			"Hor_range": [-90, 90],
			"Ver_range": [-90, 90],
			"Projection": "Equirectangular",
			"Depth_range": [0.5, 25],
			"BitDepthColor": 10,
			"BitDepthDepth": 16,
			"ColorSpace": "YUV420",
			"DepthColorSpace": "YUV420"
		}, {
			"Name": "v4",
			"Position": [0.0777, 0.1429, 1.9128],
			"Rotation": [61.4676, -40.3759, 0],
			"Depthmap": 1,
			"Background": 1,
			"Resolution": [2048, 2048],
			"Hor_range": [-90, 90],
			"Ver_range": [-90, 90],
			"Projection": "Equirectangular",
			"Depth_range": [0.5, 25],
			"BitDepthColor": 10,
			"BitDepthDepth": 16,
			"ColorSpace": "YUV420",
			"DepthColorSpace": "YUV420"
		}, {
			"Name": "v5",
			"Position": [0.2628, -0.0777, 1.5071],
			"Rotation": [-16.4676, 24.8121, 0],
			"Depthmap": 1,
			"Background": 1,
			"Resolution": [2048, 2048],
			"Hor_range": [-90, 90],
			"Ver_range": [-90, 90],
			"Projection": "Equirectangular",
			"Depth_range": [0.5, 25],
			"BitDepthColor": 10,
			"BitDepthDepth": 16,
			"ColorSpace": "YUV420",
			"DepthColorSpace": "YUV420"
		}, {
			"Name": "v6",
			"Position": [0.1429, 0.0777, 1.3872],
			"Rotation": [28.5324, 40.3759, 0],
			"Depthmap": 1,
			"Background": 1,
			"Resolution": [2048, 2048],
			"Hor_range": [-90, 90],
			"Ver_range": [-90, 90],
			"Projection": "Equirectangular",
			"Depth_range": [0.5, 25],
			"BitDepthColor": 10,
			"BitDepthDepth": 16,
			"ColorSpace": "YUV420",
			"DepthColorSpace": "YUV420"
		}, {
			"Name": "v7",
			"Position": [0.0777, 0.2628, 1.5071],
			"Rotation": [73.5324, 24.8121, 0],
			"Depthmap": 1,
			"Background": 1,
			"Resolution": [2048, 2048],
			"Hor_range": [-90, 90],
			"Ver_range": [-90, 90],
			"Projection": "Equirectangular",
			"Depth_range": [0.5, 25],
			"BitDepthColor": 10,
			"BitDepthDepth": 16,
			"ColorSpace": "YUV420",
			"DepthColorSpace": "YUV420"
		}, {
			"Name": "v8",
			"Position": [0.2628, 0.1429, 1.5723],
			"Rotation": [28.5324, 14.1095, 0],
			"Depthmap": 1,
			"Background": 1,
			"Resolution": [2048, 2048],
			"Hor_range": [-90, 90],
			"Ver_range": [-90, 90],
			"Projection": "Equirectangular",
			"Depth_range": [0.5, 25],
			"BitDepthColor": 10,
			"BitDepthDepth": 16,
			"ColorSpace": "YUV420",
			"DepthColorSpace": "YUV420"
		}, {
			"Name": "v9",
			"Position": [0.1429, -0.0777, 1.9128],
			"Rotation": [-28.5324, -40.3759, 0],
			"Depthmap": 1,
			"Background": 1,
			"Resolution": [2048, 2048],
			"Hor_range": [-90, 90],
			"Ver_range": [-90, 90],
			"Projection": "Equirectangular",
			"Depth_range": [0.5, 25],
			"BitDepthColor": 10,
			"BitDepthDepth": 16,
			"ColorSpace": "YUV420",
			"DepthColorSpace": "YUV420"
		}, {
			"Name": "v10",
			"Position": [0.0777, -0.2628, 1.7929],
			"Rotation": [-73.5324, -24.8121, 0],
			"Depthmap": 1,
			"Background": 1,
			"Resolution": [2048, 2048],
			"Hor_range": [-90, 90],
			"Ver_range": [-90, 90],
			"Projection": "Equirectangular",
			"Depth_range": [0.5, 25],
			"BitDepthColor": 10,
			"BitDepthDepth": 16,
			"ColorSpace": "YUV420",
			"DepthColorSpace": "YUV420"
		}, {
			"Name": "v11",
			"Position": [0.2628, -0.1429, 1.7277],
			"Rotation": [-28.5324, -14.1095, 0],
			"Depthmap": 1,
			"Background": 1,
			"Resolution": [2048, 2048],
			"Hor_range": [-90, 90],
			"Ver_range": [-90, 90],
			"Projection": "Equirectangular",
			"Depth_range": [0.5, 25],
			"BitDepthColor": 10,
			"BitDepthDepth": 16,
			"ColorSpace": "YUV420",
			"DepthColorSpace": "YUV420"
		}, {
			"Name": "v12",
			"Position": [-0.2628, -0.0777, 1.7929],
			"Rotation": [-163.5324, -24.8121, 0],
			"Depthmap": 1,
			"Background": 1,
			"Resolution": [2048, 2048],
			"Hor_range": [-90, 90],
			"Ver_range": [-90, 90],
			"Projection": "Equirectangular",
			"Depth_range": [0.5, 25],
			"BitDepthColor": 10,
			"BitDepthDepth": 16,
			"ColorSpace": "YUV420",
			"DepthColorSpace": "YUV420"
		}, {
			"Name": "v13",
			"Position": [-0.0777, -0.1429, 1.9128],
			"Rotation": [-118.5324, -40.3759, 0],
			"Depthmap": 1,
			"Background": 1,
			"Resolution": [2048, 2048],
			"Hor_range": [-90, 90],
			"Ver_range": [-90, 90],
			"Projection": "Equirectangular",
			"Depth_range": [0.5, 25],
			"BitDepthColor": 10,
			"BitDepthDepth": 16,
			"ColorSpace": "YUV420",
			"DepthColorSpace": "YUV420"
		}, {
			"Name": "v14",
			"Position": [-0.1429, -0.2628, 1.7277],
			"Rotation": [-118.5324, -14.1095, 0],
			"Depthmap": 1,
			"Background": 1,
			"Resolution": [2048, 2048],
			"Hor_range": [-90, 90],
			"Ver_range": [-90, 90],
			"Projection": "Equirectangular",
			"Depth_range": [0.5, 25],
			"BitDepthColor": 10,
			"BitDepthDepth": 16,
			"ColorSpace": "YUV420",
			"DepthColorSpace": "YUV420"
		}, {
			"Name": "v15",
			"Position": [-0.0777, 0.1429, 1.3872],
			"Rotation": [118.5324, 40.3759, 0],
			"Depthmap": 1,
			"Background": 1,
			"Resolution": [2048, 2048],
			"Hor_range": [-90, 90],
			"Ver_range": [-90, 90],
			"Projection": "Equirectangular",
			"Depth_range": [0.5, 25],
			"BitDepthColor": 10,
			"BitDepthDepth": 16,
			"ColorSpace": "YUV420",
			"DepthColorSpace": "YUV420"
		}, {
			"Name": "v16",
			"Position": [-0.2628, 0.0777, 1.5071],
			"Rotation": [163.5324, 24.8121, 0],
			"Depthmap": 1,
			"Background": 1,
			"Resolution": [2048, 2048],
			"Hor_range": [-90, 90],
			"Ver_range": [-90, 90],
			"Projection": "Equirectangular",
			"Depth_range": [0.5, 25],
			"BitDepthColor": 10,
			"BitDepthDepth": 16,
			"ColorSpace": "YUV420",
			"DepthColorSpace": "YUV420"
		}, {
			"Name": "v17",
			"Position": [-0.1429, 0.2628, 1.5723],
			"Rotation": [118.5324, 14.1095, 0],
			"Depthmap": 1,
			"Background": 1,
			"Resolution": [2048, 2048],
			"Hor_range": [-90, 90],
			"Ver_range": [-90, 90],
			"Projection": "Equirectangular",
			"Depth_range": [0.5, 25],
			"BitDepthColor": 10,
			"BitDepthDepth": 16,
			"ColorSpace": "YUV420",
			"DepthColorSpace": "YUV420"
		}, {
			"Name": "v18",
			"Position": [-0.0777, 0.2628, 1.7929],
			"Rotation": [106.4676, -24.8121, 0],
			"Depthmap": 1,
			"Background": 1,
			"Resolution": [2048, 2048],
			"Hor_range": [-90, 90],
			"Ver_range": [-90, 90],
			"Projection": "Equirectangular",
			"Depth_range": [0.5, 25],
			"BitDepthColor": 10,
			"BitDepthDepth": 16,
			"ColorSpace": "YUV420",
			"DepthColorSpace": "YUV420"
		}, {
			"Name": "v19",
			"Position": [-0.2628, -0.1429, 1.5723],
			"Rotation": [-151.4676, 14.1095, 0],
			"Depthmap": 1,
			"Background": 1,
			"Resolution": [2048, 2048],
			"Hor_range": [-90, 90],
			"Ver_range": [-90, 90],
			"Projection": "Equirectangular",
			"Depth_range": [0.5, 25],
			"BitDepthColor": 10,
			"BitDepthDepth": 16,
			"ColorSpace": "YUV420",
			"DepthColorSpace": "YUV420"
		}, {
			"Name": "v20",
			"Position": [-0.1429, -0.0777, 1.3872],
			"Rotation": [-151.4676, 40.3759, 0],
			"Depthmap": 1,
			"Background": 1,
			"Resolution": [2048, 2048],
			"Hor_range": [-90, 90],
			"Ver_range": [-90, 90],
			"Projection": "Equirectangular",
			"Depth_range": [0.5, 25],
			"BitDepthColor": 10,
			"BitDepthDepth": 16,
			"ColorSpace": "YUV420",
			"DepthColorSpace": "YUV420"
		}, {
			"Name": "v21",
			"Position": [-0.2628, 0.1429, 1.7277],
			"Rotation": [151.4676, -14.1095, 0],
			"Depthmap": 1,
			"Background": 1,
			"Resolution": [2048, 2048],
			"Hor_range": [-90, 90],
			"Ver_range": [-90, 90],
			"Projection": "Equirectangular",
			"Depth_range": [0.5, 25],
			"BitDepthColor": 10,
			"BitDepthDepth": 16,
			"ColorSpace": "YUV420",
			"DepthColorSpace": "YUV420"
		}, {
			"Name": "v22",
			"Position": [-0.1429, 0.0777, 1.9128],
			"Rotation": [151.4676, -40.3759, 0],
			"Depthmap": 1,
			"Background": 1,
			"Resolution": [2048, 2048],
			"Hor_range": [-90, 90],
			"Ver_range": [-90, 90],
			"Projection": "Equirectangular",
			"Depth_range": [0.5, 25],
			"BitDepthColor": 10,
			"BitDepthDepth": 16,
			"ColorSpace": "YUV420",
			"DepthColorSpace": "YUV420"
		}, {
			"Name": "v23",
			"Position": [-0.0777, -0.2628, 1.5071],
			"Rotation": [-106.4676, 24.8121, 0],
			"Depthmap": 1,
			"Background": 1,
			"Resolution": [2048, 2048],
			"Hor_range": [-90, 90],
			"Ver_range": [-90, 90],
			"Projection": "Equirectangular",
			"Depth_range": [0.5, 25],
			"BitDepthColor": 10,
			"BitDepthDepth": 16,
			"ColorSpace": "YUV420",
			"DepthColorSpace": "YUV420"
		}, {
			"Name": "i0",
			"Position": [-0.134, -0.114, 1.756],
			"Rotation": [1.8, 9.8, -5.1],
			"Depthmap": 1,
			"Background": 1,
			"Resolution": [2048, 2048],
			"Hor_range": [-90, 90],
			"Ver_range": [-90, 90],
			"Projection": "Equirectangular",
			"Depth_range": [0.5, 25],
			"BitDepthColor": 10,
			"BitDepthDepth": 16,
			"ColorSpace": "YUV420",
			"DepthColorSpace": "YUV420"
		}, {
			"Name": "i1",
			"Position": [-0.045, 0.172, 1.747],
			"Rotation": [34.7, 15.5, -6.7],
			"Depthmap": 1,
			"Background": 1,
			"Resolution": [2048, 2048],
			"Hor_range": [-90, 90],
			"Ver_range": [-90, 90],
			"Projection": "Equirectangular",
			"Depth_range": [0.5, 25],
			"BitDepthColor": 10,
			"BitDepthDepth": 16,
			"ColorSpace": "YUV420",
			"DepthColorSpace": "YUV420"
		}, {
			"Name": "i2",
			"Position": [0.166, 0.089, 1.871],
			"Rotation": [-7.9, 8.8, -4.6],
			"Depthmap": 1,
			"Background": 1,
			"Resolution": [2048, 2048],
			"Hor_range": [-90, 90],
			"Ver_range": [-90, 90],
			"Projection": "Equirectangular",
			"Depth_range": [0.5, 25],
			"BitDepthColor": 10,
			"BitDepthDepth": 16,
			"ColorSpace": "YUV420",
			"DepthColorSpace": "YUV420"
		}, {
			"Name": "i3",
			"Position": [0.096, -0.007, 1.635],
			"Rotation": [-58.8, 1.2, 4.6],
			"Depthmap": 1,
			"Background": 1,
			"Resolution": [2048, 2048],
			"Hor_range": [-90, 90],
			"Ver_range": [-90, 90],
			"Projection": "Equirectangular",
			"Depth_range": [0.5, 25],
			"BitDepthColor": 10,
			"BitDepthDepth": 16,
			"ColorSpace": "YUV420",
			"DepthColorSpace": "YUV420"
		}, {
			"Name": "i4",
			"Position": [-0.042, -0.228, 1.816],
			"Rotation": [-37.5, 45, 16.7],
			"Depthmap": 1,
			"Background": 1,
			"Resolution": [2048, 2048],
			"Hor_range": [-90, 90],
			"Ver_range": [-90, 90],
			"Projection": "Equirectangular",
			"Depth_range": [0.5, 25],
			"BitDepthColor": 10,
			"BitDepthDepth": 16,
			"ColorSpace": "YUV420",
			"DepthColorSpace": "YUV420"
		}, {
			"Name": "i5",
			"Position": [-0.019, -0.139, 1.862],
			"Rotation": [1.5, 4.3, 4.4],
			"Depthmap": 1,
			"Background": 1,
			"Resolution": [2048, 2048],
			"Hor_range": [-90, 90],
			"Ver_range": [-90, 90],
			"Projection": "Equirectangular",
			"Depth_range": [0.5, 25],
			"BitDepthColor": 10,
			"BitDepthDepth": 16,
			"ColorSpace": "YUV420",
			"DepthColorSpace": "YUV420"
		}, {
			"Name": "i6",
			"Position": [-0.09, 0.086, 1.71],
			"Rotation": [-33, -16.4, 5],
			"Depthmap": 1,
			"Background": 1,
			"Resolution": [2048, 2048],
			"Hor_range": [-90, 90],
			"Ver_range": [-90, 90],
			"Projection": "Equirectangular",
			"Depth_range": [0.5, 25],
			"BitDepthColor": 10,
			"BitDepthDepth": 16,
			"ColorSpace": "YUV420",
			"DepthColorSpace": "YUV420"
		}, {
			"Name": "i7",
			"Position": [0.097, -0.041, 1.779],
			"Rotation": [-33.6, 2.6, -3.5],
			"Depthmap": 1,
			"Background": 1,
			"Resolution": [2048, 2048],
			"Hor_range": [-90, 90],
			"Ver_range": [-90, 90],
			"Projection": "Equirectangular",
			"Depth_range": [0.5, 25],
			"BitDepthColor": 10,
			"BitDepthDepth": 16,
			"ColorSpace": "YUV420",
			"DepthColorSpace": "YUV420"
		}, {
			"Name": "i8",
			"Position": [-0.076, -0.096, 1.647],
			"Rotation": [-16.2, -5, -0.5],
			"Depthmap": 1,
			"Background": 1,
			"Resolution": [2048, 2048],
			"Hor_range": [-90, 90],
			"Ver_range": [-90, 90],
			"Projection": "Equirectangular",
			"Depth_range": [0.5, 25],
			"BitDepthColor": 10,
			"BitDepthDepth": 16,
			"ColorSpace": "YUV420",
			"DepthColorSpace": "YUV420"
		}, {
			"Name": "i9",
			"Position": [0.055, -0.275, 1.558],
			"Rotation": [51.6, 20.3, 0.2],
			"Depthmap": 1,
			"Background": 1,
			"Resolution": [2048, 2048],
			"Hor_range": [-90, 90],
			"Ver_range": [-90, 90],
			"Projection": "Equirectangular",
			"Depth_range": [0.5, 25],
			"BitDepthColor": 10,
			"BitDepthDepth": 16,
			"ColorSpace": "YUV420",
			"DepthColorSpace": "YUV420"
		}, {
			"Name": "i10",
			"Position": [-0.026, -0.045, 1.608],
			"Rotation": [12.5, -3.3, -2.2],
			"Depthmap": 1,
			"Background": 1,
			"Resolution": [2048, 2048],
			"Hor_range": [-90, 90],
			"Ver_range": [-90, 90],
			"Projection": "Equirectangular",
			"Depth_range": [0.5, 25],
			"BitDepthColor": 10,
			"BitDepthDepth": 16,
			"ColorSpace": "YUV420",
			"DepthColorSpace": "YUV420"
		}, {
			"Name": "i11",
			"Position": [-0.013, 0.119, 1.629],
			"Rotation": [-19.8, 10, -7.4],
			"Depthmap": 1,
			"Background": 1,
			"Resolution": [2048, 2048],
			"Hor_range": [-90, 90],
			"Ver_range": [-90, 90],
			"Projection": "Equirectangular",
			"Depth_range": [0.5, 25],
			"BitDepthColor": 10,
			"BitDepthDepth": 16,
			"ColorSpace": "YUV420",
			"DepthColorSpace": "YUV420"
		}, {
			"Name": "i12",
			"Position": [0.041, 0.064, 1.864],
			"Rotation": [21.5, -5.3, -3.1],
			"Depthmap": 1,
			"Background": 1,
			"Resolution": [2048, 2048],
			"Hor_range": [-90, 90],
			"Ver_range": [-90, 90],
			"Projection": "Equirectangular",
			"Depth_range": [0.5, 25],
			"BitDepthColor": 10,
			"BitDepthDepth": 16,
			"ColorSpace": "YUV420",
			"DepthColorSpace": "YUV420"
		}, {
			"Name": "i13",
			"Position": [0.056, 0.012, 1.698],
			"Rotation": [-25.6, 3.7, 7.6],
			"Depthmap": 1,
			"Background": 1,
			"Resolution": [2048, 2048],
			"Hor_range": [-90, 90],
			"Ver_range": [-90, 90],
			"Projection": "Equirectangular",
			"Depth_range": [0.5, 25],
			"BitDepthColor": 10,
			"BitDepthDepth": 16,
			"ColorSpace": "YUV420",
			"DepthColorSpace": "YUV420"
		}, {
			"Name": "i14",
			"Position": [-0.105, -0.09, 1.914],
			"Rotation": [-24.6, 4.8, 2.5],
			"Depthmap": 1,
			"Background": 1,
			"Resolution": [2048, 2048],
			"Hor_range": [-90, 90],
			"Ver_range": [-90, 90],
			"Projection": "Equirectangular",
			"Depth_range": [0.5, 25],
			"BitDepthColor": 10,
			"BitDepthDepth": 16,
			"ColorSpace": "YUV420",
			"DepthColorSpace": "YUV420"
		}, {
			"Name": "i15",
			"Position": [0.108, 0.267, 1.587],
			"Rotation": [-54, 52.3, 0.4],
			"Depthmap": 1,
			"Background": 1,
			"Resolution": [2048, 2048],
			"Hor_range": [-90, 90],
			"Ver_range": [-90, 90],
			"Projection": "Equirectangular",
			"Depth_range": [0.5, 25],
			"BitDepthColor": 10,
			"BitDepthDepth": 16,
			"ColorSpace": "YUV420",
			"DepthColorSpace": "YUV420"
		}, {
			"Name": "i16",
			"Position": [0.131, 0.133, 1.803],
			"Rotation": [23, -3.2, -0.2],
			"Depthmap": 1,
			"Background": 1,
			"Resolution": [2048, 2048],
			"Hor_range": [-90, 90],
			"Ver_range": [-90, 90],
			"Projection": "Equirectangular",
			"Depth_range": [0.5, 25],
			"BitDepthColor": 10,
			"BitDepthDepth": 16,
			"ColorSpace": "YUV420",
			"DepthColorSpace": "YUV420"
		}, {
			"Name": "i17",
			"Position": [-0.224, -0.054, 1.464],
			"Rotation": [-7, 1.7, 10.6],
			"Depthmap": 1,
			"Background": 1,
			"Resolution": [2048, 2048],
			"Hor_range": [-90, 90],
			"Ver_range": [-90, 90],
			"Projection": "Equirectangular",
			"Depth_range": [0.5, 25],
			"BitDepthColor": 10,
			"BitDepthDepth": 16,
			"ColorSpace": "YUV420",
			"DepthColorSpace": "YUV420"
		}, {
			"Name": "i18",
			"Position": [-0.265, 0.021, 1.732],
			"Rotation": [43.9, 17.3, 0.8],
			"Depthmap": 1,
			"Background": 1,
			"Resolution": [2048, 2048],
			"Hor_range": [-90, 90],
			"Ver_range": [-90, 90],
			"Projection": "Equirectangular",
			"Depth_range": [0.5, 25],
			"BitDepthColor": 10,
			"BitDepthDepth": 16,
			"ColorSpace": "YUV420",
			"DepthColorSpace": "YUV420"
		}, {
			"Name": "i19",
			"Position": [0.036, 0.177, 1.445],
			"Rotation": [-21.2, -5.7, 12.6],
			"Depthmap": 1,
			"Background": 1,
			"Resolution": [2048, 2048],
			"Hor_range": [-90, 90],
			"Ver_range": [-90, 90],
			"Projection": "Equirectangular",
			"Depth_range": [0.5, 25],
			"BitDepthColor": 10,
			"BitDepthDepth": 16,
			"ColorSpace": "YUV420",
			"DepthColorSpace": "YUV420"
		}
	]
}
