X,Y,Z,Yaw,Pitch,Roll
-0.084440821,-0.068918107,-0.078416409,2.91505,-1.355,-0.97268
-0.083780196,-0.066803107,-0.079328597,2.894625,-1.351795,-0.965893333
-0.083034883,-0.064555458,-0.080298245,2.8742,-1.34859,-0.959106667
-0.082161758,-0.062108395,-0.081347152,2.856295,-1.34493,-0.952988333
-0.081131915,-0.05944334,-0.082477347,2.83839,-1.34127,-0.94687
-0.079930665,-0.056589898,-0.083671097,2.82646,-1.340305,-0.942823333
-0.078532383,-0.053574085,-0.084913636,2.81453,-1.33934,-0.938776667
-0.076900508,-0.050418326,-0.086193167,2.800875,-1.337555,-0.934725
-0.075004727,-0.047128568,-0.087505901,2.78722,-1.33577,-0.930673333
-0.072820977,-0.043694278,-0.088856058,2.77669,-1.33491,-0.928225
-0.070361758,-0.040120769,-0.090243362,2.76616,-1.33405,-0.925776667
-0.067676133,-0.036429202,-0.09166305,2.75734,-1.335545,-0.924505
-0.064817227,-0.032634617,-0.093114066,2.74852,-1.33704,-0.923233333
-0.061842227,-0.028745934,-0.094599066,2.74599,-1.34085,-0.924013333
-0.058822071,-0.024823682,-0.096101331,2.74346,-1.34466,-0.924793333
-0.055841446,-0.020979999,-0.097584769,2.7412,-1.348115,-0.925825
-0.052944883,-0.017320096,-0.099016526,2.73894,-1.35157,-0.926856667
-0.050136758,-0.013942257,-0.100366995,2.736815,-1.356335,-0.927576667
-0.047303633,-0.010776433,-0.10166762,2.73469,-1.3611,-0.928296667
-0.044214258,-0.007584245,-0.103010901,2.729815,-1.36531,-0.927756667
-0.040714415,-0.004200212,-0.104453753,2.72494,-1.36952,-0.927216667
-0.036726915,-0.000531748,-0.106017503,2.715265,-1.37413,-0.92447
-0.032371915,0.003305701,-0.107644222,2.70559,-1.37874,-0.921723333
-0.027966915,0.006988657,-0.109196722,2.70539,-1.37951,-0.921281667
-0.02375004,0.010315329,-0.110591644,2.70519,-1.38028,-0.92084
-0.01988004,0.013205614,-0.111799456,2.696615,-1.38611,-0.91727
-0.016267227,0.015780364,-0.112867777,2.68804,-1.39194,-0.9137
-0.012573477,0.018361382,-0.11392137,2.69374,-1.39516,-0.915296667
-0.008537227,0.021163573,-0.115039964,2.69944,-1.39838,-0.916893333
-0.003973477,0.024294944,-0.116258245,2.70429,-1.40079,-0.918645
0.001092148,0.02770898,-0.117550706,2.70914,-1.4032,-0.920396667
0.006423398,0.03120465,-0.118831644,2.710795,-1.403075,-0.921326667
0.011815742,0.034638837,-0.120041253,2.71245,-1.40295,-0.922256667
0.017096367,0.037926341,-0.121145628,2.709065,-1.40746,-0.92239
0.022146211,0.041029302,-0.122134417,2.70568,-1.41197,-0.922523333
0.026899961,0.043957195,-0.123020823,2.701295,-1.41323,-0.922256667
0.031292304,0.046689294,-0.123811644,2.69691,-1.41449,-0.92199
0.035257929,0.049174674,-0.124507269,2.684565,-1.414595,-0.919306667
0.038794179,0.051393388,-0.125113206,2.67222,-1.4147,-0.916623333
0.041961054,0.053356473,-0.125640081,2.661285,-1.414115,-0.914165
0.044897304,0.055140934,-0.126104573,2.65035,-1.41353,-0.911706667
0.047820429,0.056889746,-0.126529417,2.619455,-1.41452,-0.902031667
0.050866992,0.058684556,-0.126919534,2.58856,-1.41551,-0.892356667
0.054092617,0.060545681,-0.127262034,2.55826,-1.417795,-0.882573333
0.057411367,0.062407255,-0.127538753,2.52796,-1.42008,-0.87279
0.060595742,0.064117228,-0.127726253,2.51821,-1.421005,-0.869858333
0.063466054,0.065577304,-0.127815511,2.50846,-1.42193,-0.866926667
0.065890429,0.066742938,-0.127811917,2.45595,-1.425285,-0.850105
0.067846054,0.067628708,-0.12770723,2.40344,-1.42864,-0.833283333
0.069419179,0.068308315,-0.127479573,2.391145,-1.431365,-0.829163333
0.070659492,0.068834511,-0.127115472,2.37885,-1.43409,-0.825043333
0.071580117,0.069239095,-0.126609847,2.38327,-1.437125,-0.826356667
0.072150273,0.069525907,-0.125985667,2.38769,-1.44016,-0.82767
0.072295273,0.069670817,-0.125293948,2.391935,-1.44113,-0.828116667
0.072007461,0.069661623,-0.124574652,2.39618,-1.4421,-0.828563333
0.071346211,0.069498043,-0.123856683,2.435865,-1.4511,-0.840661667
0.070381679,0.069187242,-0.123149612,2.47555,-1.4601,-0.85276
0.069194804,0.068743831,-0.122443675,2.513445,-1.47109,-0.865636667
0.067841054,0.068186008,-0.121734964,2.55134,-1.48208,-0.878513333
0.066350429,0.067535557,-0.121025433,2.569035,-1.493505,-0.884555
0.064700273,0.066804873,-0.120317308,2.58673,-1.50493,-0.890596667
0.062815273,0.065996962,-0.119613089,2.67186,-1.50931,-0.918983333
0.060522773,0.065064702,-0.118884573,2.75699,-1.51369,-0.94737
0.057552773,0.063910841,-0.118072855,2.825815,-1.512625,-0.969811667
0.053735742,0.062443312,-0.117130667,2.89464,-1.51156,-0.992253333
0.049002617,0.060575236,-0.116022386,2.95507,-1.508885,-1.011963333
0.043465586,0.058283789,-0.11475723,3.0155,-1.50621,-1.031673333
0.037418086,0.055610199,-0.113389261,3.01807,-1.504245,-1.032385
0.031220586,0.052677425,-0.111994261,3.02064,-1.50228,-1.033096667
0.025300586,0.049690148,-0.11066973,3.03136,-1.50086,-1.035258333
0.019905429,0.046786771,-0.109474183,3.04208,-1.49944,-1.03742
0.015102304,0.044039414,-0.108427151,3.059315,-1.50135,-1.040781667
0.010631836,0.04132066,-0.107466566,3.07655,-1.50326,-1.044143333
0.005908086,0.038303558,-0.106448753,3.09155,-1.50247,-1.047476667
0.000549336,0.034782385,-0.10528223,3.10655,-1.50168,-1.05081
-0.005621915,0.030672653,-0.103927698,3.12155,-1.50017,-1.054143333
-0.012377227,0.026145124,-0.10244473,3.13655,-1.49866,-1.057476667
-0.019082227,0.021625811,-0.100991761,3.11785,-1.497345,-1.051413333
-0.02529629,0.017399554,-0.099670003,3.09915,-1.49603,-1.04535
-0.03077254,0.013610019,-0.098523441,3.18648,-1.489345,-1.07168
-0.035616758,0.010125806,-0.097502503,3.27381,-1.48266,-1.09801
-0.040287383,0.006540458,-0.096464066,3.30455,-1.47988,-1.107456667
-0.045077383,0.002581925,-0.095308948,3.33529,-1.4771,-1.116903333
-0.050114258,-0.001887433,-0.093981917,3.34672,-1.4762,-1.120561667
-0.055290508,-0.006792607,-0.09249887,3.35815,-1.4753,-1.12422
-0.060263633,-0.011845946,-0.090946839,3.343295,-1.47482,-1.119496667
-0.064846446,-0.016890433,-0.089378987,3.32844,-1.47434,-1.114773333
-0.069007071,-0.021899683,-0.087814612,3.31261,-1.47094,-1.109768333
-0.072775977,-0.026917946,-0.086251995,3.29678,-1.46754,-1.104763333
-0.076245977,-0.032060107,-0.084668401,3.30176,-1.462765,-1.106681667
-0.079420821,-0.037299758,-0.083079495,3.30674,-1.45799,-1.1086
-0.082215196,-0.0424692,-0.081539339,3.30565,-1.455845,-1.107873333
-0.084571758,-0.047437919,-0.080092659,3.30456,-1.4537,-1.107146667
-0.086461133,-0.052112589,-0.078774847,3.31538,-1.45106,-1.110318333
-0.087872852,-0.056623089,-0.077562542,3.3262,-1.44842,-1.11349
-0.088815352,-0.061322509,-0.076373636,3.334475,-1.447355,-1.115593333
-0.089281758,-0.066461294,-0.075147933,3.34275,-1.44629,-1.117696667
-0.089249883,-0.07218725,-0.073847151,3.33802,-1.44521,-1.115425
-0.088744883,-0.078439769,-0.07248348,3.33329,-1.44413,-1.113153333
-0.087839258,-0.084949836,-0.071119573,3.325475,-1.44476,-1.110173333
-0.086634571,-0.091526626,-0.069793792,3.31766,-1.44539,-1.107193333
-0.085261446,-0.098057505,-0.068520198,3.307535,-1.44811,-1.10246
-0.08380629,-0.104474817,-0.0672968,3.29741,-1.45083,-1.097726667
-0.08231129,-0.110755879,-0.06610555,3.30551,-1.4498,-1.099223333
-0.080776602,-0.116868805,-0.064936761,3.31361,-1.44877,-1.10072
-0.079160352,-0.122772497,-0.063789105,3.29889,-1.446705,-1.094368333
-0.077393165,-0.128482206,-0.062654769,3.28417,-1.44464,-1.088016667
-0.075378165,-0.134069532,-0.061519456,3.28245,-1.441515,-1.085123333
-0.073063321,-0.139550087,-0.060379651,3.28073,-1.43839,-1.08223
-0.070441446,-0.144883498,-0.05924262,3.28035,-1.43651,-1.078858333
-0.06751879,-0.150004849,-0.058117308,3.27997,-1.43463,-1.075486667
-0.06431504,-0.154824684,-0.057014339,3.27812,-1.436725,-1.071156667
-0.06075629,-0.159427688,-0.055904222,3.27627,-1.43882,-1.066826667
-0.05667504,-0.164072693,-0.054717347,3.33328,-1.440725,-1.083068333
-0.051984415,-0.168950338,-0.053405355,3.39029,-1.44263,-1.09931
-0.046678165,-0.174183075,-0.051941136,3.497465,-1.444815,-1.132991667
-0.040848477,-0.179699566,-0.050344183,3.60464,-1.447,-1.166673333
-0.034685977,-0.185234687,-0.048680589,3.64525,-1.44766,-1.18027
-0.028392383,-0.190556563,-0.047014925,3.68586,-1.44832,-1.193866667
-0.022180508,-0.195466571,-0.045410237,3.82371,-1.44628,-1.238206667
-0.016214883,-0.199862773,-0.043907698,3.96156,-1.44424,-1.282546667
-0.010611758,-0.203739912,-0.042526605,4.05167,-1.442715,-1.312335
-0.005225665,-0.207238695,-0.041228011,4.14178,-1.44119,-1.342123333
0.000350586,-0.210645798,-0.03991473,4.20947,-1.43878,-1.36485
0.006410429,-0.214176721,-0.038511917,4.27716,-1.43637,-1.387576667
0.013133554,-0.217975792,-0.036967073,4.3389,-1.434815,-1.40783
0.020380117,-0.222001501,-0.035296839,4.40064,-1.43326,-1.428083333
0.027690742,-0.226026497,-0.033586995,4.39758,-1.433995,-1.426301667
0.034722773,-0.229887761,-0.031899651,4.39452,-1.43473,-1.42452
0.041250273,-0.233486609,-0.030273244,4.44935,-1.430885,-1.440396667
0.047179648,-0.236792194,-0.028721447,4.50418,-1.42704,-1.456273333
0.052549648,-0.239841507,-0.027233166,4.52764,-1.42268,-1.461743333
0.057351836,-0.242641029,-0.025813127,4.5511,-1.41832,-1.467213333
0.061530586,-0.245166734,-0.024481877,4.56207,-1.41479,-1.469323333
0.065081211,-0.247420886,-0.023245705,4.57304,-1.41126,-1.471433333
0.068049961,-0.249432038,-0.022096643,4.58179,-1.408865,-1.474136667
0.070641367,-0.251297699,-0.020987736,4.59054,-1.40647,-1.47684
0.073218242,-0.253184338,-0.019833049,4.590395,-1.40515,-1.4766
0.076183398,-0.255202779,-0.018541643,4.59025,-1.40383,-1.47636
0.079979648,-0.257408207,-0.01701758,4.593895,-1.402885,-1.477545
0.084634179,-0.259687032,-0.015233361,4.59754,-1.40194,-1.47873
0.089758554,-0.261756884,-0.013229924,4.60457,-1.40225,-1.481073333
0.094289023,-0.263231733,-0.011184299,4.6116,-1.40256,-1.483416667
0.096486523,-0.26362188,-0.009409611,4.625325,-1.400765,-1.487535
0.095205586,-0.262657424,-0.008168127,4.63905,-1.39897,-1.491653333
0.089894336,-0.260288254,-0.007671252,4.642485,-1.39613,-1.493091667
0.081248086,-0.256822806,-0.007897697,4.64592,-1.39329,-1.49453
0.071209336,-0.252928056,-0.008593479,4.598435,-1.39125,-1.485551667
0.061374336,-0.249172139,-0.009495627,4.55095,-1.38921,-1.476573333
0.052993086,-0.246024349,-0.010332189,4.500885,-1.398545,-1.462203333
0.046336679,-0.243572559,-0.011000353,4.45082,-1.40788,-1.447833333
0.040697304,-0.241523224,-0.011566447,4.369085,-1.423975,-1.4221
0.035291211,-0.239494635,-0.012148908,4.28735,-1.44007,-1.396366667
0.029258711,-0.237016916,-0.012918283,4.285135,-1.445915,-1.39575
0.022251992,-0.233886396,-0.013946955,4.28292,-1.45176,-1.395133333
0.014435117,-0.230165606,-0.015209143,4.24151,-1.455685,-1.381496667
0.006138711,-0.226015618,-0.016640979,4.2001,-1.45961,-1.36786
-0.00214004,-0.221696047,-0.01814051,4.19789,-1.460055,-1.367248333
-0.010090352,-0.21737525,-0.01964344,4.19568,-1.4605,-1.366636667
-0.017587852,-0.21313033,-0.021123127,4.070225,-1.47152,-1.325615
-0.024557696,-0.209022868,-0.022557658,3.94477,-1.48254,-1.284593333
-0.030974571,-0.205098922,-0.023929846,3.888665,-1.48445,-1.266631667
-0.036950352,-0.20126682,-0.025275705,3.83256,-1.48636,-1.24867
-0.042734102,-0.197297164,-0.026684455,3.73882,-1.488375,-1.218313333
-0.048506602,-0.193018059,-0.02822758,3.64508,-1.49039,-1.187956667
-0.054380352,-0.188315117,-0.02995883,3.53908,-1.49104,-1.153415
-0.06022129,-0.183323291,-0.031829846,3.43308,-1.49169,-1.118873333
-0.06564879,-0.178426876,-0.033690159,3.41702,-1.49152,-1.113863333
-0.07038129,-0.1738864,-0.035431174,3.40096,-1.49135,-1.108853333
-0.07423629,-0.169838623,-0.036986175,3.292035,-1.488045,-1.073631667
-0.077290568,-0.16614435,-0.038408167,3.18311,-1.48474,-1.03841
-0.079880181,-0.162388431,-0.039869886,3.15467,-1.481335,-1.03041
-0.082331696,-0.158295885,-0.04149223,3.12623,-1.47793,-1.02241
-0.08496219,-0.153731907,-0.043344261,3.13605,-1.47438,-1.027228333
-0.087847475,-0.148776259,-0.045397894,3.14587,-1.47083,-1.032046667
-0.090822098,-0.143723268,-0.047527894,3.16347,-1.47194,-1.038798333
-0.093708088,-0.138741838,-0.049656292,3.18107,-1.47305,-1.04555
-0.096314963,-0.133875449,-0.051752386,3.18018,-1.46531,-1.049371667
-0.098587121,-0.129115769,-0.053808519,3.17929,-1.45757,-1.053193333
-0.100603849,-0.124402648,-0.055840081,3.176385,-1.452185,-1.055071667
-0.102424182,-0.119727741,-0.05784555,3.17348,-1.4468,-1.05695
-0.104086899,-0.1151345,-0.059806487,3.18908,-1.43954,-1.06429
-0.105586094,-0.110635186,-0.06172262,3.20468,-1.43228,-1.07163
-0.106871174,-0.106210869,-0.063611839,3.215555,-1.42041,-1.077313333
-0.107910295,-0.101848756,-0.065489534,3.22643,-1.40854,-1.082996667
-0.108690363,-0.097542189,-0.067368597,3.242095,-1.404155,-1.089716667
-0.109213286,-0.093313481,-0.069246448,3.25776,-1.39977,-1.096436667
-0.109495972,-0.089213914,-0.071105042,3.278355,-1.397225,-1.105238333
-0.109558454,-0.085284858,-0.072926995,3.29895,-1.39468,-1.11404
-0.10942389,-0.081557773,-0.074695589,3.31301,-1.394145,-1.12058
-0.109136533,-0.078040477,-0.076404573,3.32707,-1.39361,-0.970066205
-0.108761731,-0.074717147,-0.078057531,3.343055,-1.39339,-0.820414069
-0.108384674,-0.071580138,-0.079659618,3.35904,-1.39317,-0.671071767
-0.108110399,-0.068629986,-0.081216929,3.3839,-1.39385,-0.525480499
-0.108032848,-0.065899578,-0.082716026,3.40876,-1.39453,-0.380507675
-0.108234871,-0.063454149,-0.084125847,3.428315,-1.390665,-0.234615094
-0.108751661,-0.061328659,-0.085424285,3.44787,-1.3868,-0.089647126
-0.109570759,-0.059527789,-0.086599141,3.466025,-1.38343,0.055112769
-0.110643609,-0.057984319,-0.087685787,3.48418,-1.38006,0.19864553
-0.111885564,-0.056559132,-0.08875957,3.489555,-1.38164,0.345949972
-0.113251666,-0.055164219,-8.99E-02,3.49493,-1.38322,0.491729601
-0.114736644,-0.053762683,-0.091021956,3.49313,-1.386235,0.638701097
-0.116365853,-0.052384628,-0.092192113,3.49133,-1.38925,0.78385612
-0.118195274,-0.051127159,-0.093301488,3.48569,-1.390445,0.928916458
-0.120239172,-0.050048003,-0.094301331,3.48005,-1.39164,1.071875832
-0.122470093,-0.049165508,-0.095171331,3.460085,-1.39729,1.217495037
-0.124843395,-0.048476944,-0.095912855,3.44012,-1.40294,1.360737079
-0.127297251,-0.047958507,-0.096548948,3.42451,-1.404925,1.500675642
-0.129800931,-0.04758719,-0.097104378,3.4089,-1.40691,1.637970223
-0.132354796,-0.047340788,-0.097605628,3.39578,-1.41032,1.771917928
-0.134961243,-0.047197765,-0.098068089,3.38266,-1.41373,1.902965268
-0.137624698,-0.047137256,-0.098496058,3.34764,-1.41846,2.038339949
-0.140328029,-0.047147398,-0.098882776,3.31262,-1.42319,2.170569327
-0.143032541,-0.047225331,-0.099210433,3.29927,-1.42388,2.291038863
-0.145708915,-0.047365829,-0.099475745,3.28592,-1.42457,2.408130573
-0.148337209,-0.047561298,-0.099689964,3.221465,-1.42881,2.539029804
-0.150915453,-0.047808654,-0.09986637,3.15701,-1.43305,2.666332015
-0.153459644,-0.048109323,-0.100020276,3.10844,-1.433315,2.784289547
-0.155987969,-0.048463474,-0.100155823,3.05987,-1.43358,2.898445062
-0.158520805,-0.048870014,-0.10026598,3.015565,-1.43354,3.007383305
-0.161074624,-0.049319211,-0.100345863,2.97126,-1.4335,3.112329538
-0.163661992,-0.049792688,-0.100392738,2.939975,-1.43196,3.209161294
-0.166273446,-0.050275488,-0.100409808,2.90869,-1.43042,3.301826802
-0.168877494,-0.050756064,-0.100406214,2.868577346,-1.428435,3.393386733
-0.171436708,-0.051226237,-0.100389105,2.828464693,-1.42645,3.48062262
-0.173907724,-0.051681192,-0.100363636,2.805524693,-1.42312,3.55803693
-0.176271241,-0.052112486,-0.100335316,2.782584693,-1.41979,3.630986463
-0.178532025,-0.052508044,-0.100310003,2.757779693,-1.417965,3.70073998
-0.180708746,-0.052861816,-0.100295238,2.732974693,-1.41614,3.765905613
-0.182833987,-0.053173776,-0.100300238,2.715409693,-1.41598,3.824252683
-0.184946265,-0.053457172,-0.100322894,2.697844693,-1.41582,3.877906863
-0.187090041,-0.053738529,-0.100349769,2.689934693,-1.41422,3.923097573
-0.189283213,-0.054033603,-0.10036973,2.682024693,-1.41262,3.963508913
-0.191517118,-0.054347385,-0.100373948,2.679739693,-1.411475,3.997391357
-0.193752627,-0.054668559,-0.100368128,2.677454693,-1.41033,4.026426807
-0.195920146,-0.05496951,-0.100372503,2.677899693,-1.410755,4.04862861
-0.197964767,-0.055233912,-0.100403206,2.678344693,-1.41118,4.065934927
-0.199846273,-0.055456728,-0.100472269,2.680354693,-1.41179,4.079563743
-0.20155242,-0.055645581,-0.100582855,2.682364693,-1.4124,4.088267903
-0.20309893,-0.055820746,-0.100729261,2.690369693,-1.412675,4.08933677
-0.204516376,-0.055993902,-0.100904261,2.698374693,-1.41295,4.085471237
-0.205850174,-0.05616813,-0.101099105,2.706939693,-1.41277,4.07665041
-0.207144179,-0.056337162,-0.101306683,2.715504693,-1.41259,4.062904927
-0.208440689,-0.05648538,-0.101521527,2.713254693,-1.41214,4.046620277
-0.209768406,-0.056602143,-0.101739886,2.711004693,-1.41169,4.02544014
-0.211142445,-0.056681777,-0.10195973,2.725569693,-1.41048,3.99494469
-0.212562138,-0.056723087,-0.102178167,2.740134693,-1.40927,3.959602247
-0.214011041,-0.056729355,-0.102391448,2.751129693,-1.407615,3.919595907
-0.215469272,-0.056704796,-0.102594495,2.762124693,-1.40596,3.874810197
-0.216913518,-0.056654559,-0.102780902,2.760854693,-1.404745,3.829056017
-0.218324057,-0.056582988,-0.102947581,2.759584693,-1.40353,3.778608947
-0.219684768,-0.056493617,-0.103094769,2.753459693,-1.403755,3.724877533
-0.220993122,-0.056385821,-0.103226331,2.747334693,-1.40398,3.66655823
-0.222260189,-0.056254812,-0.103349769,2.744859693,-1.40357,3.602498697
-0.223501103,-0.05609895,-0.103471331,2.742384693,-1.40316,3.53397439
-0.224735063,-0.05591974,-0.103596019,2.737404693,-1.40356,3.461976837
-0.22597205,-0.055723052,-0.103726019,2.732424693,-1.40396,3.385655237
-0.227212833,-0.055519119,-0.103860706,2.729839693,-1.403645,3.304698063
-0.228455366,-0.055317955,-0.103996331,2.727254693,-1.40333,3.21957464
-0.229694797,-0.055129357,-0.104126019,2.719564693,-1.403415,3.132310074
-0.230920182,-0.054960701,-0.104243987,2.711874693,-1.4035,3.041053498
-0.232114483,-0.054816942,-0.10434555,2.707404693,-1.40373,2.944847983
-0.233268793,-0.054695053,-0.104431175,2.702934693,-1.40396,2.844840451
-0.234382332,-0.054584027,-0.104506487,2.697659693,-1.403185,2.741436573
-0.235461665,-0.054473097,-0.104577112,2.692384693,-1.40241,2.634435675
-0.236520704,-0.054351744,-0.104648675,2.687009693,-1.401855,2.523828965
-0.237566177,-0.05421506,-0.1047243,2.681634693,-1.4013,2.409844429
-0.238597627,-0.054063748,-0.104804612,2.681119693,-1.40123,2.290566718
-0.239611474,-0.053897445,-0.10489055,2.680604693,-1.40116,2.168143704
-0.240601015,-0.053714726,-0.104983362,2.676399693,-1.40086,2.044024697
-0.241558771,-0.053515558,-0.105084222,2.672194693,-1.40056,1.917005325
-0.242476483,-0.053301299,-0.105194222,2.673969693,-1.400515,1.785110744
-0.243349333,-0.05307806,-0.10531137,2.675744693,-1.40047,1.650572181
-0.244175941,-0.052856703,-0.105430589,2.676359693,-1.4008,1.51387014
-0.244958527,-0.052644721,-0.10554723,2.676974693,-1.40113,1.374790934
-0.245702905,-0.052446239,-0.105657073,2.672064693,-1.400935,1.235398227
-0.246418175,-0.052255277,-0.10576219,2.667154693,-1.40074,1.093904556
-0.24711672,-0.05205575,-0.10587094,2.662329693,-1.40063,0.950409532
-0.247814207,-0.05183822,-0.105989183,2.657504693,-1.40052,0.805098037
-0.248529587,-0.051599894,-0.106120276,2.650929693,-1.39989,0.658531741
-0.249273222,-0.051350415,-0.106261097,2.644354693,-1.39926,0.510440633
-0.25004688,-0.051111861,-0.106402034,2.643714693,-1.398965,0.359076205
-0.250835305,-0.050901008,-0.106534964,2.643074693,-1.39867,0.206484643
-0.251606208,-0.050729325,-0.106653245,2.634814693,-1.39834,0.055078342
-0.252330276,-0.050599102,-0.106754105,2.626554693,-1.39801,-0.097252572
-0.252981164,-0.050503451,-0.106838636,2.624384693,-1.39693,-0.252182063
-0.25355347,-0.050433496,-0.106909886,2.622214693,-1.39585,-0.407729998
-0.254062731,-0.050378385,-0.106972855,2.621784693,-1.395925,-0.5640973
-0.254531364,-0.050330914,-0.107030589,2.621354693,-1.396,-0.720774436
-0.254988662,-0.050287534,-0.107084183,2.621834693,-1.39648,-0.878028231
-0.255454078,-0.050247218,-0.107133089,2.622314693,-1.39696,-0.878228231
-0.255921977,-0.050212139,-0.107174521,2.623874693,-1.39682,-0.878863231
-0.25637754,-0.050183378,-0.107207204,2.625434693,-1.39668,-0.879498231
-0.256795529,-0.050160854,-0.107231448,2.630739693,-1.397155,-0.881468231
-0.257122187,-0.050145451,-0.107247095,2.636044693,-1.39763,-0.883438231
-0.25736728,-0.050134968,-0.107257069,2.640609693,-1.39805,-0.884944898
-0.257542601,-0.050127619,-0.107263684,2.645174693,-1.39847,-0.886451564
-0.257606568,-0.050125069,-0.107265891,2.646104693,-1.398895,-0.886953231
-0.257668841,-0.050122424,-0.107268206,2.647034693,-1.39932,-0.887454898
-0.257728184,-0.050119611,-0.107270706,2.650784693,-1.39932,-0.888921564
